<svg width="25" height="25" viewBox="0 0 25 25" fill="none" xmlns="http://www.w3.org/2000/svg">
<path d="M24.5116 12.0118H22.3632V11.0698C22.3632 10.8456 22.2105 10.6502 21.9929 10.596L20.547 10.2357L19.791 8.4115L20.5583 7.13499C20.6738 6.94285 20.6436 6.69669 20.485 6.53819L18.4618 4.51498C18.3032 4.35643 18.0571 4.32625 17.865 4.44173L16.5885 5.20904L14.7642 4.45306L14.404 3.00711C14.3498 2.78953 14.1544 2.63684 13.9301 2.63684H12.9882V0.48842C12.9882 0.218733 12.7696 0.00012207 12.4999 0.00012207C12.2303 0.00012207 12.0117 0.218733 12.0117 0.48842V2.63684H11.0696C10.8454 2.63684 10.65 2.78953 10.5958 3.00711L10.2356 4.45306L8.41133 5.20904L7.13482 4.44173C6.94258 4.3262 6.69652 4.35638 6.53802 4.51498L4.51481 6.53819C4.35626 6.69674 4.32608 6.94289 4.44156 7.13499L5.20887 8.4115L4.45289 10.2357L3.00694 10.596C2.78936 10.6502 2.63666 10.8456 2.63666 11.0698V12.0118H0.488298C0.218611 12.0118 0 12.2304 0 12.5001C0 12.7698 0.218611 12.9884 0.488298 12.9884H2.63671V13.9304C2.63671 14.1547 2.7894 14.3501 3.00699 14.4042L4.45294 14.7645L5.20892 16.5887L4.44156 17.8652C4.32603 18.0574 4.35626 18.3036 4.51481 18.4621L6.53802 20.4854C6.69657 20.6439 6.94272 20.674 7.13492 20.5586L8.41138 19.7912L10.2357 20.5472L10.5959 21.9931C10.6501 22.2107 10.8455 22.3634 11.0697 22.3634H12.0117V24.5118C12.0117 24.7815 12.2303 25.0001 12.5 25.0001C12.7697 25.0001 12.9883 24.7815 12.9883 24.5118V22.3634H13.9303C14.1545 22.3634 14.3499 22.2107 14.4042 21.9931L14.7644 20.5472L16.5887 19.7912L17.8651 20.5586C18.0573 20.674 18.3034 20.6439 18.462 20.4854L20.4852 18.4621C20.6437 18.3036 20.674 18.0574 20.5584 17.8652L19.7911 16.5887L20.5471 14.7645L21.9931 14.4042C22.2106 14.3501 22.3633 14.1547 22.3633 13.9304V12.9884H24.5117C24.7814 12.9884 25 12.7698 25 12.5001C24.9999 12.2304 24.7813 12.0118 24.5116 12.0118ZM21.3866 13.5489L20.0721 13.8764C19.9219 13.9139 19.7983 14.0203 19.739 14.1633L18.7946 16.4424C18.7353 16.5854 18.7474 16.7481 18.8272 16.8809L19.5248 18.0414L18.0412 19.525L16.8807 18.8274C16.7479 18.7476 16.5852 18.7355 16.4421 18.7948L14.163 19.7393C14.02 19.7986 13.9136 19.9222 13.8762 20.0724L13.5487 21.3869H11.4511L11.1236 20.0724C11.0862 19.9222 10.9798 19.7986 10.8368 19.7393L8.55767 18.7948C8.4146 18.7355 8.2519 18.7476 8.11913 18.8274L6.95864 19.525L5.47505 18.0414L6.17263 16.8809C6.25242 16.7481 6.26448 16.5854 6.2052 16.4424L5.26073 14.1633C5.20145 14.0203 5.07786 13.9139 4.92766 13.8764L3.61316 13.5489V11.4514L4.92771 11.1239C5.07791 11.0864 5.2015 10.98 5.26078 10.837L6.20525 8.55789C6.26453 8.41482 6.25242 8.25212 6.17268 8.1194L5.47509 6.95891L6.95869 5.47531L8.11918 6.1729C8.2519 6.25268 8.4146 6.26479 8.55767 6.20547L10.8368 5.261C10.9798 5.20172 11.0862 5.07813 11.1236 4.92793L11.4511 3.61338H13.5487L13.8762 4.92793C13.9136 5.07813 14.02 5.20172 14.163 5.261L16.4421 6.20547C16.5852 6.26475 16.7479 6.25264 16.8806 6.1729L18.0411 5.47531L19.5247 6.95891L18.8271 8.1194C18.7473 8.25212 18.7353 8.41482 18.7946 8.55789L19.739 10.837C19.7983 10.98 19.9219 11.0864 20.0721 11.1239L21.3866 11.4514V13.5489Z" fill="#0B0D4A"/>
<path d="M14.6533 6.63117C14.4001 6.53839 14.1196 6.66818 14.0266 6.92132C13.9337 7.1745 14.0637 7.45503 14.3168 7.54795C16.3842 8.30672 17.7733 10.2969 17.7733 12.5002C17.7733 15.408 15.4076 17.7736 12.4999 17.7736C9.59211 17.7736 7.2265 15.4079 7.2265 12.5001C7.2265 10.4153 8.45838 8.52196 10.3648 7.67671C10.6113 7.56743 10.7226 7.27895 10.6132 7.03245C10.504 6.78596 10.2154 6.67468 9.96898 6.78401C7.70982 7.78565 6.25 10.0294 6.25 12.5001C6.25 15.9463 9.05371 18.7501 12.5 18.7501C15.9462 18.7501 18.7499 15.9463 18.7499 12.5001C18.7499 9.889 17.1036 7.53042 14.6533 6.63117Z" fill="#0B0D4A"/>
<path d="M12.5258 6.25017L12.4999 6.25012C12.2302 6.25012 12.0116 6.46873 12.0116 6.73842C12.0116 7.00811 12.2302 7.22672 12.4999 7.22672L12.5229 7.22677C12.5234 7.22677 12.5239 7.22677 12.5244 7.22677C12.7934 7.22677 13.0118 7.00908 13.0127 6.73989C13.0134 6.4702 12.7955 6.25095 12.5258 6.25017Z" fill="#0B0D4A"/>
<path d="M15.9016 10.5575C15.6319 10.5575 15.4133 10.7761 15.4133 11.0458V13.8918C15.4133 14.1615 15.6319 14.3801 15.9016 14.3801C16.1713 14.3801 16.3899 14.1615 16.3899 13.8918V11.0457C16.3899 10.7761 16.1713 10.5575 15.9016 10.5575Z" fill="#0B0D4A"/>
<path d="M13.5337 10.5575H12.5277C12.258 10.5575 12.0394 10.7761 12.0394 11.0458V12.0194V12.6855V13.8918C12.0394 14.1614 12.258 14.3801 12.5277 14.3801C12.7974 14.3801 13.016 14.1614 13.016 13.8918V13.1737H13.5337C14.2149 13.1737 14.7691 12.6195 14.7691 11.9384V11.7929C14.7691 11.1117 14.2149 10.5575 13.5337 10.5575ZM13.7925 11.9383C13.7925 12.081 13.6764 12.1972 13.5337 12.1972H13.0159V12.0193V11.534H13.5337C13.6764 11.534 13.7925 11.6501 13.7925 11.7928V11.9383Z" fill="#0B0D4A"/>
<path d="M11.5163 13.774L10.263 10.8533C10.1861 10.6738 10.0096 10.5575 9.81434 10.5575C9.61907 10.5575 9.4426 10.6738 9.36559 10.8533L8.11233 13.774C8.00598 14.0218 8.12068 14.3089 8.36854 14.4152C8.6164 14.5215 8.90347 14.4068 9.00982 14.159L9.81434 12.284L10.6189 14.159C10.6983 14.3441 10.8785 14.4549 11.0679 14.4549C11.1321 14.4549 11.1974 14.4422 11.2601 14.4152C11.508 14.3089 11.6227 14.0218 11.5163 13.774Z" fill="#0B0D4A"/>
<path d="M23.3407 0.00012207C22.4253 0.00012207 21.6806 0.744826 21.6806 1.66029C21.6806 1.94038 21.7506 2.2043 21.8736 2.4359L20.0054 4.30403C19.8147 4.49471 19.8147 4.8039 20.0054 4.99458C20.1007 5.0899 20.2257 5.13756 20.3507 5.13756C20.4757 5.13756 20.6007 5.0899 20.696 4.99453L22.5638 3.12674C22.7958 3.25014 23.0602 3.3204 23.3407 3.3204C24.2561 3.3204 25.0009 2.5757 25.0009 1.66024C25.0009 0.744777 24.2562 0.00012207 23.3407 0.00012207ZM23.3407 2.34386C22.9638 2.34386 22.6572 2.0372 22.6572 1.66029C22.6572 1.28332 22.9638 0.976719 23.3407 0.976719C23.7177 0.976719 24.0243 1.28337 24.0243 1.66029C24.0244 2.0372 23.7177 2.34386 23.3407 2.34386Z" fill="#0B0D4A"/>
<path d="M4.99446 20.0056C4.80378 19.815 4.49459 19.815 4.30396 20.0057L2.43646 21.8731C2.20462 21.75 1.94045 21.6798 1.66017 21.6798C0.744704 21.6799 0 22.4246 0 23.34C0 24.2554 0.744704 25.0002 1.66017 25.0002C2.57563 25.0002 3.32033 24.2555 3.32033 23.34C3.32033 23.0597 3.25021 22.7955 3.12701 22.5637L4.99451 20.6962C5.18514 20.5055 5.18514 20.1963 4.99446 20.0056ZM1.66017 24.0236C1.2832 24.0236 0.976597 23.717 0.976597 23.34C0.976597 22.9631 1.28325 22.6565 1.66017 22.6565C2.03713 22.6565 2.34373 22.9631 2.34373 23.34C2.34373 23.717 2.03708 24.0236 1.66017 24.0236Z" fill="#0B0D4A"/>
<path d="M20.6962 20.0057C20.6049 19.9149 20.4789 19.8627 20.3505 19.8627C20.2221 19.8627 20.0961 19.9149 20.0053 20.0057C19.9144 20.0965 19.8622 20.2225 19.8622 20.351C19.8622 20.4794 19.9144 20.6054 20.0053 20.6961C20.0961 20.787 20.2221 20.8393 20.3505 20.8393C20.4794 20.8393 20.6049 20.787 20.6962 20.6961C20.787 20.6054 20.8388 20.4798 20.8388 20.351C20.8388 20.2225 20.787 20.0965 20.6962 20.0057Z" fill="#0B0D4A"/>
<path d="M23.3407 21.6796C23.0601 21.6796 22.7957 21.7498 22.5637 21.8733L21.7388 21.0484C21.5481 20.8578 21.2389 20.8577 21.0483 21.0484C20.8576 21.239 20.8576 21.5482 21.0483 21.7389L21.8735 22.5642C21.7506 22.7959 21.6806 23.0598 21.6806 23.3398C21.6806 24.2552 22.4253 25 23.3407 25C24.2562 25 25.0008 24.2553 25.0008 23.3398C25.0008 22.4243 24.2561 21.6796 23.3407 21.6796ZM23.3407 24.0234C22.9637 24.0234 22.6571 23.7167 22.6571 23.3398C22.6571 22.9628 22.9638 22.6562 23.3407 22.6562C23.7176 22.6562 24.0242 22.9629 24.0242 23.3398C24.0243 23.7167 23.7176 24.0234 23.3407 24.0234Z" fill="#0B0D4A"/>
<path d="M4.99446 4.30501L3.12701 2.43756C3.25021 2.20572 3.32033 1.94155 3.32033 1.66126C3.32033 0.745851 2.57563 0.00109863 1.66017 0.00109863C0.744704 0.00109863 0 0.745803 0 1.66126C0 2.57673 0.744704 3.32143 1.66017 3.32143C1.9405 3.32143 2.20467 3.25131 2.43646 3.12811L4.30396 4.99556C4.39932 5.09093 4.52428 5.13858 4.64923 5.13858C4.77419 5.13858 4.89919 5.09093 4.99451 4.99556C5.18514 4.80488 5.18514 4.49569 4.99446 4.30501ZM1.66017 2.34483C1.2832 2.34483 0.976597 2.03818 0.976597 1.66126C0.976597 1.2843 1.28325 0.977695 1.66017 0.977695C2.03713 0.977695 2.34373 1.28435 2.34373 1.66126C2.34373 2.03818 2.03708 2.34483 1.66017 2.34483Z" fill="#0B0D4A"/>
</svg>
