<svg width="19" height="18" viewBox="0 0 19 18" fill="none" xmlns="http://www.w3.org/2000/svg">
<path d="M16.1179 4.63391H2.75186C1.23439 4.63391 0 5.8683 0 7.38573V15.2481C0 16.7656 1.23439 18 2.75186 18H16.118C17.6354 18 18.8698 16.7656 18.8698 15.2481V7.38573C18.8698 5.8683 17.6354 4.63391 16.1179 4.63391ZM18.0836 15.2482C18.0836 16.3316 17.2022 17.2138 16.118 17.2138H2.75186C1.66762 17.2138 0.786266 16.3316 0.786266 15.2482V7.38573C0.786266 6.3023 1.66766 5.42014 2.75186 5.42014H16.118C17.2022 5.42014 18.0836 6.3023 18.0836 7.38573V15.2482Z" fill="#0B0D4A"/>
<path d="M15.3317 10.1376C14.6815 10.1376 14.1523 10.6668 14.1523 11.317C14.1523 11.9672 14.6815 12.4964 15.3317 12.4964C15.9819 12.4964 16.5111 11.9672 16.5111 11.317C16.5111 10.6668 15.9819 10.1376 15.3317 10.1376ZM15.3317 11.7101C15.1155 11.7101 14.9386 11.534 14.9386 11.317C14.9386 11.1 15.1155 10.9239 15.3317 10.9239C15.5479 10.9239 15.7248 11.1 15.7248 11.317C15.7248 11.534 15.5479 11.7101 15.3317 11.7101Z" fill="#0B0D4A"/>
<path d="M18.4769 8.56512H15.3319C13.8145 8.56512 12.5801 9.79951 12.5801 11.317C12.5801 12.8344 13.8145 14.0688 15.3319 14.0688H18.4769C18.6939 14.0688 18.87 13.8927 18.87 13.6757V8.95826C18.87 8.74125 18.6939 8.56512 18.4769 8.56512ZM18.0838 13.2826H15.3319C14.2477 13.2826 13.3663 12.4004 13.3663 11.317C13.3663 10.2336 14.2477 9.35139 15.3319 9.35139H18.0838V13.2826Z" fill="#0B0D4A"/>
<path d="M16.0759 4.8509L14.4114 1.52193C14.0757 0.850463 13.4962 0.355941 12.7808 0.129503C12.0653 -0.0961603 11.3073 -0.0253985 10.6453 0.329995L2.56511 4.68107C2.37405 4.78327 2.30252 5.02231 2.40549 5.21337C2.5085 5.40442 2.74751 5.47596 2.93779 5.37299L11.0196 1.02346C11.4913 0.768718 12.0346 0.7176 12.5441 0.879578C13.0551 1.04075 13.4687 1.39455 13.7085 1.87419L15.373 5.20312C15.4422 5.3407 15.5806 5.42012 15.7244 5.42012C15.7834 5.42012 15.8432 5.40675 15.8998 5.37844C16.0939 5.28096 16.1726 5.04509 16.0759 4.8509Z" fill="#0B0D4A"/>
<path d="M14.4987 1.69644C14.3949 1.50461 14.1559 1.43385 13.9657 1.53605L8.12468 4.68099C7.93362 4.784 7.86209 5.02223 7.96506 5.21329C8.03582 5.34538 8.17104 5.42008 8.31102 5.42008C8.37393 5.42008 8.43839 5.40516 8.49813 5.37368L14.3391 2.22874C14.5302 2.12573 14.6017 1.88749 14.4987 1.69644Z" fill="#0B0D4A"/>
<path d="M7.07618 2.27509H4.32432C1.94046 2.27509 0 4.21473 0 6.5994V7.38563C0 7.60264 0.17613 7.77877 0.393133 7.77877C0.610136 7.77877 0.786266 7.60264 0.786266 7.38563V6.5994C0.786266 4.64874 2.37369 3.06132 4.32435 3.06132H7.07618C7.29318 3.06132 7.46931 2.88518 7.46931 2.66818C7.46931 2.45118 7.29318 2.27509 7.07618 2.27509Z" fill="#0B0D4A"/>
<path d="M14.5455 2.27509C14.3285 2.27509 14.1523 2.45122 14.1523 2.66822C14.1523 2.88522 14.3285 3.06135 14.5455 3.06135C16.4961 3.06135 18.0836 4.64877 18.0836 6.59944V7.38567C18.0836 7.60267 18.2597 7.7788 18.4767 7.7788C18.6937 7.7788 18.8698 7.60267 18.8698 7.38567V6.59944C18.8698 4.21473 16.9293 2.27509 14.5455 2.27509Z" fill="#0B0D4A"/>
</svg>
